info face="comfortaa" size=32 bold=0 italic=0 charset="" unicode=1 stretchH=100 smooth=1 aa=2 padding=0,0,0,0 spacing=0,0
common lineHeight=40 base=33 scaleW=1024 scaleH=1024 pages=8 packed=0 alphaChnl=0 redChnl=0 greenChnl=0 blueChnl=0
page id=0 file="fonts_0.png"
page id=1 file="fonts_1.png"
page id=2 file="fonts_2.png"
page id=3 file="fonts_3.png"
page id=4 file="fonts_4.png"
page id=5 file="fonts_5.png"
page id=6 file="fonts_6.png"
page id=7 file="fonts_7.png"
chars count=96
char id=10   x=172  y=358  width=18   height=25   xoffset=1    yoffset=8    xadvance=20   page=0    chnl=0
char id=32   x=0    y=0    width=0    height=0    xoffset=0    yoffset=0    xadvance=9    page=0    chnl=0
char id=33   x=22   y=658  width=4    height=25   xoffset=1    yoffset=8    xadvance=6    page=0    chnl=0
char id=34   x=14   y=757  width=9    height=7    xoffset=0    yoffset=8    xadvance=9    page=0    chnl=0
char id=35   x=172  y=979  width=19   height=25   xoffset=0    yoffset=8    xadvance=20   page=0    chnl=0
char id=36   x=174  y=816  width=14   height=29   xoffset=1    yoffset=6    xadvance=16   page=0    chnl=0
char id=37   x=340  y=890  width=26   height=25   xoffset=1    yoffset=8    xadvance=28   page=0    chnl=0
char id=38   x=364  y=448  width=21   height=25   xoffset=1    yoffset=8    xadvance=23   page=0    chnl=0
char id=39   x=21   y=175  width=5    height=7    xoffset=0    yoffset=8    xadvance=5    page=0    chnl=0
char id=40   x=16   y=977  width=7    height=33   xoffset=1    yoffset=8    xadvance=9    page=0    chnl=0
char id=41   x=68   y=245  width=7    height=33   xoffset=1    yoffset=8    xadvance=9    page=0    chnl=0
char id=42   x=376  y=34   width=11   height=10   xoffset=1    yoffset=8    xadvance=12   page=0    chnl=0
char id=43   x=359  y=34   width=15   height=15   xoffset=1    yoffset=13   xadvance=18   page=0    chnl=0
char id=44   x=21   y=184  width=4    height=8    xoffset=1    yoffset=29   xadvance=6    page=0    chnl=0
char id=45   x=638  y=20   width=11   height=3    xoffset=1    yoffset=23   xadvance=13   page=0    chnl=0
char id=46   x=632  y=20   width=4    height=4    xoffset=1    yoffset=29   xadvance=6    page=0    chnl=0
char id=47   x=174  y=721  width=14   height=27   xoffset=1    yoffset=8    xadvance=15   page=0    chnl=0
char id=48   x=174  y=667  width=15   height=25   xoffset=1    yoffset=8    xadvance=17   page=0    chnl=0
char id=49   x=16   y=929  width=7    height=25   xoffset=1    yoffset=8    xadvance=9    page=0    chnl=0
char id=50   x=175  y=264  width=15   height=25   xoffset=1    yoffset=8    xadvance=17   page=0    chnl=0
char id=51   x=175  y=291  width=15   height=25   xoffset=1    yoffset=8    xadvance=17   page=0    chnl=0
char id=52   x=172  y=385  width=18   height=25   xoffset=1    yoffset=8    xadvance=20   page=0    chnl=0
char id=53   x=175  y=318  width=16   height=25   xoffset=1    yoffset=8    xadvance=18   page=0    chnl=0
char id=54   x=172  y=412  width=15   height=25   xoffset=1    yoffset=8    xadvance=17   page=0    chnl=0
char id=55   x=172  y=573  width=16   height=25   xoffset=1    yoffset=8    xadvance=18   page=0    chnl=0
char id=56   x=172  y=600  width=15   height=25   xoffset=1    yoffset=8    xadvance=17   page=0    chnl=0
char id=57   x=172  y=627  width=15   height=25   xoffset=1    yoffset=8    xadvance=17   page=0    chnl=0
char id=58   x=21   y=250  width=4    height=17   xoffset=1    yoffset=16   xadvance=6    page=0    chnl=0
char id=59   x=21   y=225  width=4    height=21   xoffset=1    yoffset=16   xadvance=6    page=0    chnl=0
char id=60   x=643  y=26   width=16   height=18   xoffset=1    yoffset=13   xadvance=18   page=0    chnl=0
char id=61   x=166  y=38   width=15   height=10   xoffset=1    yoffset=17   xadvance=16   page=0    chnl=0
char id=62   x=661  y=26   width=16   height=18   xoffset=1    yoffset=13   xadvance=18   page=0    chnl=0
char id=63   x=174  y=694  width=15   height=25   xoffset=1    yoffset=8    xadvance=17   page=0    chnl=0
char id=64   x=340  y=856  width=33   height=32   xoffset=1    yoffset=8    xadvance=35   page=0    chnl=0
char id=65   x=119  y=331  width=21   height=25   xoffset=1    yoffset=8    xadvance=23   page=0    chnl=0
char id=66   x=101  y=751  width=15   height=25   xoffset=1    yoffset=8    xadvance=17   page=0    chnl=0
char id=67   x=119  y=358  width=21   height=25   xoffset=1    yoffset=8    xadvance=23   page=0    chnl=0
char id=68   x=119  y=385  width=19   height=25   xoffset=1    yoffset=8    xadvance=21   page=0    chnl=0
char id=69   x=119  y=412  width=18   height=25   xoffset=1    yoffset=8    xadvance=20   page=0    chnl=0
char id=70   x=119  y=439  width=18   height=25   xoffset=1    yoffset=8    xadvance=20   page=0    chnl=0
char id=71   x=119  y=466  width=21   height=25   xoffset=1    yoffset=8    xadvance=23   page=0    chnl=0
char id=72   x=119  y=493  width=18   height=25   xoffset=1    yoffset=8    xadvance=20   page=0    chnl=0
char id=73   x=21   y=511  width=3    height=25   xoffset=2    yoffset=8    xadvance=8    page=0    chnl=0
char id=74   x=101  y=778  width=15   height=25   xoffset=1    yoffset=8    xadvance=17   page=0    chnl=0
char id=75   x=119  y=520  width=17   height=25   xoffset=1    yoffset=8    xadvance=19   page=0    chnl=0
char id=76   x=119  y=547  width=17   height=25   xoffset=1    yoffset=8    xadvance=19   page=0    chnl=0
char id=77   x=145  y=979  width=25   height=25   xoffset=1    yoffset=8    xadvance=27   page=0    chnl=0
char id=78   x=119  y=574  width=20   height=25   xoffset=1    yoffset=8    xadvance=22   page=0    chnl=0
char id=79   x=990  y=149  width=25   height=25   xoffset=1    yoffset=8    xadvance=27   page=0    chnl=0
char id=80   x=1008 y=99   width=15   height=25   xoffset=1    yoffset=8    xadvance=17   page=0    chnl=0
char id=81   x=990  y=176  width=25   height=25   xoffset=1    yoffset=8    xadvance=27   page=0    chnl=0
char id=82   x=119  y=601  width=17   height=25   xoffset=1    yoffset=8    xadvance=18   page=0    chnl=0
char id=83   x=119  y=628  width=15   height=25   xoffset=0    yoffset=8    xadvance=16   page=0    chnl=0
char id=84   x=119  y=655  width=19   height=25   xoffset=1    yoffset=8    xadvance=21   page=0    chnl=0
char id=85   x=119  y=682  width=18   height=25   xoffset=1    yoffset=8    xadvance=20   page=0    chnl=0
char id=86   x=119  y=709  width=21   height=25   xoffset=1    yoffset=8    xadvance=23   page=0    chnl=0
char id=87   x=990  y=203  width=28   height=25   xoffset=1    yoffset=8    xadvance=30   page=0    chnl=0
char id=88   x=119  y=736  width=21   height=25   xoffset=1    yoffset=8    xadvance=23   page=0    chnl=0
char id=89   x=119  y=763  width=19   height=25   xoffset=1    yoffset=8    xadvance=20   page=0    chnl=0
char id=90   x=119  y=790  width=21   height=25   xoffset=1    yoffset=8    xadvance=23   page=0    chnl=0
char id=91   x=68   y=682  width=8    height=32   xoffset=1    yoffset=8    xadvance=10   page=0    chnl=0
char id=92   x=174  y=761  width=14   height=28   xoffset=0    yoffset=8    xadvance=15   page=0    chnl=0
char id=93   x=69   y=979  width=8    height=32   xoffset=1    yoffset=8    xadvance=10   page=0    chnl=0
char id=94   x=118  y=37   width=13   height=10   xoffset=1    yoffset=8    xadvance=15   page=0    chnl=0
char id=95   x=780  y=20   width=19   height=3    xoffset=-2   yoffset=33   xadvance=15   page=0    chnl=0
char id=96   x=17   y=798  width=7    height=6    xoffset=1    yoffset=8    xadvance=9    page=0    chnl=0
char id=97   x=187  y=31   width=17   height=17   xoffset=1    yoffset=16   xadvance=19   page=0    chnl=0
char id=98   x=119  y=817  width=17   height=25   xoffset=1    yoffset=8    xadvance=19   page=0    chnl=0
char id=99   x=427  y=26   width=15   height=17   xoffset=1    yoffset=16   xadvance=18   page=0    chnl=0
char id=100  x=119  y=844  width=17   height=25   xoffset=1    yoffset=8    xadvance=19   page=0    chnl=0
char id=101  x=444  y=26   width=18   height=17   xoffset=1    yoffset=16   xadvance=20   page=0    chnl=0
char id=102  x=66   y=536  width=12   height=25   xoffset=1    yoffset=8    xadvance=13   page=0    chnl=0
char id=103  x=80   y=999  width=17   height=24   xoffset=1    yoffset=16   xadvance=19   page=0    chnl=0
char id=104  x=119  y=871  width=16   height=25   xoffset=1    yoffset=8    xadvance=18   page=0    chnl=0
char id=105  x=21   y=150  width=5    height=23   xoffset=1    yoffset=10   xadvance=8    page=0    chnl=0
char id=106  x=16   y=819  width=10   height=30   xoffset=0    yoffset=10   xadvance=10   page=0    chnl=0
char id=107  x=119  y=898  width=15   height=25   xoffset=1    yoffset=8    xadvance=18   page=0    chnl=0
char id=108  x=17   y=771  width=6    height=25   xoffset=1    yoffset=8    xadvance=8    page=0    chnl=0
char id=109  x=464  y=26   width=25   height=17   xoffset=1    yoffset=16   xadvance=28   page=0    chnl=0
char id=110  x=491  y=26   width=16   height=17   xoffset=1    yoffset=16   xadvance=18   page=0    chnl=0
char id=111  x=509  y=26   width=17   height=17   xoffset=1    yoffset=16   xadvance=19   page=0    chnl=0
char id=112  x=119  y=925  width=17   height=25   xoffset=1    yoffset=16   xadvance=19   page=0    chnl=0
char id=113  x=119  y=952  width=17   height=25   xoffset=1    yoffset=16   xadvance=19   page=0    chnl=0
char id=114  x=206  y=31   width=13   height=17   xoffset=1    yoffset=16   xadvance=15   page=0    chnl=0
char id=115  x=528  y=26   width=15   height=17   xoffset=1    yoffset=16   xadvance=17   page=0    chnl=0
char id=116  x=67   y=439  width=11   height=25   xoffset=1    yoffset=8    xadvance=13   page=0    chnl=0
char id=117  x=545  y=26   width=16   height=18   xoffset=1    yoffset=15   xadvance=18   page=0    chnl=0
char id=118  x=563  y=26   width=17   height=18   xoffset=1    yoffset=15   xadvance=19   page=0    chnl=0
char id=119  x=582  y=26   width=23   height=18   xoffset=1    yoffset=15   xadvance=25   page=0    chnl=0
char id=120  x=607  y=26   width=16   height=18   xoffset=1    yoffset=15   xadvance=18   page=0    chnl=0
char id=121  x=119  y=979  width=16   height=26   xoffset=1    yoffset=15   xadvance=18   page=0    chnl=0
char id=122  x=625  y=26   width=16   height=17   xoffset=1    yoffset=16   xadvance=18   page=0    chnl=0
char id=123  x=103  y=814  width=11   height=32   xoffset=1    yoffset=8    xadvance=13   page=0    chnl=0
char id=124  x=23   y=867  width=3    height=33   xoffset=5    yoffset=8    xadvance=13   page=0    chnl=0
char id=125  x=103  y=875  width=11   height=32   xoffset=1    yoffset=8    xadvance=13   page=0    chnl=0
char id=126  x=151  y=41   width=13   height=5    xoffset=1    yoffset=19   xadvance=15   page=0    chnl=0
kernings count=501
kerning first=65 second=67 amount=-3
kerning first=65 second=71 amount=-3
kerning first=65 second=79 amount=-2
kerning first=65 second=81 amount=-2
kerning first=65 second=84 amount=-4
kerning first=65 second=86 amount=-4
kerning first=65 second=87 amount=-3
kerning first=65 second=89 amount=-4
kerning first=65 second=102 amount=-2
kerning first=65 second=106 amount=-4
kerning first=65 second=116 amount=-3
kerning first=65 second=118 amount=-5
kerning first=65 second=119 amount=-4
kerning first=65 second=121 amount=-5
kerning first=66 second=84 amount=-3
kerning first=66 second=86 amount=-3
kerning first=66 second=87 amount=-3
kerning first=66 second=89 amount=-3
kerning first=66 second=106 amount=-5
kerning first=66 second=120 amount=-2
kerning first=66 second=121 amount=-2
kerning first=67 second=67 amount=-2
kerning first=67 second=71 amount=-2
kerning first=67 second=79 amount=-2
kerning first=67 second=81 amount=-2
kerning first=67 second=102 amount=-2
kerning first=67 second=106 amount=-5
kerning first=67 second=116 amount=-2
kerning first=67 second=118 amount=-2
kerning first=67 second=119 amount=-3
kerning first=67 second=121 amount=-3
kerning first=68 second=65 amount=-3
kerning first=68 second=84 amount=-3
kerning first=68 second=86 amount=-3
kerning first=68 second=88 amount=-4
kerning first=68 second=89 amount=-4
kerning first=68 second=90 amount=-4
kerning first=68 second=106 amount=-5
kerning first=69 second=67 amount=-3
kerning first=69 second=71 amount=-3
kerning first=69 second=79 amount=-3
kerning first=69 second=81 amount=-3
kerning first=69 second=99 amount=-2
kerning first=69 second=102 amount=-2
kerning first=69 second=106 amount=-4
kerning first=69 second=116 amount=-2
kerning first=69 second=118 amount=-2
kerning first=69 second=119 amount=-4
kerning first=69 second=121 amount=-3
kerning first=70 second=65 amount=-4
kerning first=70 second=67 amount=-3
kerning first=70 second=71 amount=-3
kerning first=70 second=74 amount=-3
kerning first=70 second=79 amount=-3
kerning first=70 second=81 amount=-3
kerning first=70 second=83 amount=-3
kerning first=70 second=97 amount=-4
kerning first=70 second=99 amount=-4
kerning first=70 second=100 amount=-5
kerning first=70 second=101 amount=-4
kerning first=70 second=102 amount=-3
kerning first=70 second=103 amount=-4
kerning first=70 second=106 amount=-4
kerning first=70 second=109 amount=-3
kerning first=70 second=110 amount=-3
kerning first=70 second=111 amount=-4
kerning first=70 second=112 amount=-4
kerning first=70 second=113 amount=-4
kerning first=70 second=114 amount=-3
kerning first=70 second=115 amount=-3
kerning first=70 second=116 amount=-2
kerning first=70 second=117 amount=-4
kerning first=70 second=118 amount=-4
kerning first=70 second=119 amount=-4
kerning first=70 second=120 amount=-5
kerning first=70 second=121 amount=-4
kerning first=70 second=122 amount=-2
kerning first=71 second=102 amount=-2
kerning first=71 second=106 amount=-4
kerning first=71 second=116 amount=-2
kerning first=72 second=106 amount=-3
kerning first=73 second=106 amount=-4
kerning first=74 second=106 amount=-3
kerning first=75 second=67 amount=-4
kerning first=75 second=71 amount=-4
kerning first=75 second=79 amount=-4
kerning first=75 second=81 amount=-4
kerning first=75 second=97 amount=-2
kerning first=75 second=99 amount=-2
kerning first=75 second=100 amount=-2
kerning first=75 second=101 amount=-2
kerning first=75 second=102 amount=-2
kerning first=75 second=106 amount=-4
kerning first=75 second=111 amount=-2
kerning first=75 second=113 amount=-2
kerning first=75 second=116 amount=-2
kerning first=75 second=118 amount=-3
kerning first=75 second=119 amount=-4
kerning first=75 second=121 amount=-2
kerning first=76 second=67 amount=-4
kerning first=76 second=71 amount=-3
kerning first=76 second=79 amount=-4
kerning first=76 second=81 amount=-3
kerning first=76 second=84 amount=-6
kerning first=76 second=85 amount=-2
kerning first=76 second=86 amount=-5
kerning first=76 second=87 amount=-5
kerning first=76 second=89 amount=-6
kerning first=76 second=97 amount=-2
kerning first=76 second=98 amount=-2
kerning first=76 second=99 amount=-2
kerning first=76 second=100 amount=-2
kerning first=76 second=101 amount=-2
kerning first=76 second=102 amount=-2
kerning first=76 second=106 amount=-4
kerning first=76 second=111 amount=-2
kerning first=76 second=113 amount=-2
kerning first=76 second=116 amount=-3
kerning first=76 second=118 amount=-5
kerning first=76 second=119 amount=-4
kerning first=76 second=121 amount=-3
kerning first=77 second=106 amount=-4
kerning first=78 second=106 amount=-4
kerning first=79 second=65 amount=-3
kerning first=79 second=83 amount=-2
kerning first=79 second=84 amount=-3
kerning first=79 second=86 amount=-3
kerning first=79 second=87 amount=-2
kerning first=79 second=88 amount=-4
kerning first=79 second=89 amount=-4
kerning first=79 second=90 amount=-5
kerning first=79 second=106 amount=-5
kerning first=80 second=65 amount=-5
kerning first=80 second=74 amount=-4
kerning first=80 second=84 amount=-2
kerning first=80 second=88 amount=-2
kerning first=80 second=89 amount=-2
kerning first=80 second=90 amount=-2
kerning first=80 second=106 amount=-5
kerning first=81 second=84 amount=-3
kerning first=81 second=86 amount=-3
kerning first=81 second=87 amount=-2
kerning first=81 second=89 amount=-4
kerning first=81 second=106 amount=-4
kerning first=82 second=74 amount=-2
kerning first=82 second=84 amount=-3
kerning first=82 second=86 amount=-2
kerning first=82 second=89 amount=-3
kerning first=82 second=97 amount=-3
kerning first=82 second=99 amount=-3
kerning first=82 second=100 amount=-2
kerning first=82 second=101 amount=-2
kerning first=82 second=106 amount=-3
kerning first=82 second=111 amount=-2
kerning first=82 second=113 amount=-2
kerning first=83 second=106 amount=-4
kerning first=83 second=121 amount=-2
kerning first=84 second=65 amount=-6
kerning first=84 second=67 amount=-4
kerning first=84 second=71 amount=-3
kerning first=84 second=74 amount=-5
kerning first=84 second=79 amount=-3
kerning first=84 second=81 amount=-4
kerning first=84 second=83 amount=-2
kerning first=84 second=97 amount=-5
kerning first=84 second=99 amount=-6
kerning first=84 second=100 amount=-5
kerning first=84 second=101 amount=-5
kerning first=84 second=102 amount=-4
kerning first=84 second=103 amount=-5
kerning first=84 second=106 amount=-5
kerning first=84 second=109 amount=-4
kerning first=84 second=110 amount=-4
kerning first=84 second=111 amount=-5
kerning first=84 second=112 amount=-5
kerning first=84 second=113 amount=-5
kerning first=84 second=114 amount=-2
kerning first=84 second=115 amount=-3
kerning first=84 second=116 amount=-2
kerning first=84 second=117 amount=-3
kerning first=84 second=118 amount=-3
kerning first=84 second=119 amount=-3
kerning first=84 second=120 amount=-3
kerning first=84 second=121 amount=-3
kerning first=84 second=122 amount=-2
kerning first=85 second=106 amount=-4
kerning first=86 second=65 amount=-5
kerning first=86 second=67 amount=-3
kerning first=86 second=71 amount=-3
kerning first=86 second=74 amount=-4
kerning first=86 second=79 amount=-2
kerning first=86 second=81 amount=-2
kerning first=86 second=83 amount=-2
kerning first=86 second=97 amount=-4
kerning first=86 second=99 amount=-4
kerning first=86 second=100 amount=-4
kerning first=86 second=101 amount=-4
kerning first=86 second=102 amount=-2
kerning first=86 second=103 amount=-4
kerning first=86 second=106 amount=-5
kerning first=86 second=109 amount=-2
kerning first=86 second=111 amount=-4
kerning first=86 second=112 amount=-4
kerning first=86 second=113 amount=-4
kerning first=86 second=114 amount=-2
kerning first=86 second=115 amount=-3
kerning first=86 second=116 amount=-2
kerning first=86 second=119 amount=-2
kerning first=86 second=120 amount=-2
kerning first=86 second=121 amount=-2
kerning first=86 second=122 amount=-2
kerning first=87 second=65 amount=-3
kerning first=87 second=67 amount=-3
kerning first=87 second=71 amount=-3
kerning first=87 second=74 amount=-4
kerning first=87 second=79 amount=-2
kerning first=87 second=81 amount=-2
kerning first=87 second=83 amount=-2
kerning first=87 second=97 amount=-3
kerning first=87 second=99 amount=-4
kerning first=87 second=100 amount=-3
kerning first=87 second=101 amount=-3
kerning first=87 second=102 amount=-2
kerning first=87 second=103 amount=-3
kerning first=87 second=106 amount=-4
kerning first=87 second=109 amount=-2
kerning first=87 second=111 amount=-3
kerning first=87 second=112 amount=-3
kerning first=87 second=113 amount=-3
kerning first=87 second=114 amount=-2
kerning first=87 second=115 amount=-3
kerning first=87 second=116 amount=-2
kerning first=87 second=119 amount=-2
kerning first=87 second=120 amount=-2
kerning first=87 second=121 amount=-2
kerning first=87 second=122 amount=-2
kerning first=88 second=67 amount=-4
kerning first=88 second=71 amount=-3
kerning first=88 second=79 amount=-4
kerning first=88 second=81 amount=-4
kerning first=88 second=99 amount=-2
kerning first=88 second=102 amount=-2
kerning first=88 second=106 amount=-3
kerning first=88 second=116 amount=-2
kerning first=88 second=118 amount=-4
kerning first=88 second=119 amount=-4
kerning first=88 second=121 amount=-3
kerning first=89 second=65 amount=-5
kerning first=89 second=67 amount=-3
kerning first=89 second=71 amount=-3
kerning first=89 second=74 amount=-4
kerning first=89 second=79 amount=-3
kerning first=89 second=81 amount=-3
kerning first=89 second=83 amount=-2
kerning first=89 second=97 amount=-4
kerning first=89 second=99 amount=-4
kerning first=89 second=100 amount=-4
kerning first=89 second=101 amount=-4
kerning first=89 second=102 amount=-3
kerning first=89 second=103 amount=-4
kerning first=89 second=106 amount=-4
kerning first=89 second=109 amount=-4
kerning first=89 second=110 amount=-3
kerning first=89 second=111 amount=-4
kerning first=89 second=112 amount=-4
kerning first=89 second=113 amount=-4
kerning first=89 second=114 amount=-3
kerning first=89 second=115 amount=-3
kerning first=89 second=116 amount=-2
kerning first=89 second=117 amount=-3
kerning first=89 second=118 amount=-3
kerning first=89 second=119 amount=-4
kerning first=89 second=120 amount=-3
kerning first=89 second=121 amount=-3
kerning first=89 second=122 amount=-3
kerning first=90 second=67 amount=-4
kerning first=90 second=71 amount=-4
kerning first=90 second=79 amount=-4
kerning first=90 second=81 amount=-4
kerning first=90 second=97 amount=-2
kerning first=90 second=99 amount=-3
kerning first=90 second=100 amount=-2
kerning first=90 second=101 amount=-2
kerning first=90 second=102 amount=-2
kerning first=90 second=106 amount=-3
kerning first=90 second=111 amount=-2
kerning first=90 second=113 amount=-2
kerning first=90 second=116 amount=-2
kerning first=90 second=118 amount=-4
kerning first=90 second=119 amount=-4
kerning first=90 second=121 amount=-4
kerning first=95 second=95 amount=-2
kerning first=97 second=84 amount=-7
kerning first=97 second=86 amount=-5
kerning first=97 second=87 amount=-3
kerning first=97 second=89 amount=-6
kerning first=97 second=102 amount=-2
kerning first=97 second=106 amount=-5
kerning first=97 second=116 amount=-2
kerning first=97 second=118 amount=-2
kerning first=97 second=121 amount=-2
kerning first=98 second=65 amount=-2
kerning first=98 second=84 amount=-5
kerning first=98 second=86 amount=-3
kerning first=98 second=87 amount=-3
kerning first=98 second=88 amount=-3
kerning first=98 second=89 amount=-6
kerning first=98 second=90 amount=-3
kerning first=98 second=102 amount=-2
kerning first=98 second=106 amount=-4
kerning first=98 second=116 amount=-2
kerning first=98 second=118 amount=-2
kerning first=98 second=120 amount=-2
kerning first=98 second=121 amount=-2
kerning first=98 second=122 amount=-2
kerning first=99 second=84 amount=-5
kerning first=99 second=86 amount=-3
kerning first=99 second=89 amount=-3
kerning first=99 second=106 amount=-4
kerning first=100 second=65 amount=-2
kerning first=100 second=106 amount=-3
kerning first=101 second=65 amount=-2
kerning first=101 second=84 amount=-6
kerning first=101 second=86 amount=-5
kerning first=101 second=87 amount=-3
kerning first=101 second=88 amount=-3
kerning first=101 second=89 amount=-5
kerning first=101 second=90 amount=-3
kerning first=101 second=102 amount=-2
kerning first=101 second=106 amount=-5
kerning first=101 second=116 amount=-2
kerning first=101 second=118 amount=-2
kerning first=101 second=120 amount=-2
kerning first=101 second=121 amount=-2
kerning first=101 second=122 amount=-2
kerning first=102 second=65 amount=-3
kerning first=102 second=74 amount=-4
kerning first=102 second=106 amount=-5
kerning first=103 second=84 amount=-5
kerning first=103 second=86 amount=-5
kerning first=103 second=87 amount=-3
kerning first=103 second=89 amount=-5
kerning first=103 second=102 amount=-2
kerning first=103 second=116 amount=-2
kerning first=103 second=118 amount=-2
kerning first=103 second=121 amount=-2
kerning first=104 second=84 amount=-6
kerning first=104 second=86 amount=-5
kerning first=104 second=87 amount=-3
kerning first=104 second=89 amount=-5
kerning first=104 second=102 amount=-2
kerning first=104 second=106 amount=-4
kerning first=104 second=116 amount=-2
kerning first=104 second=118 amount=-2
kerning first=104 second=121 amount=-2
kerning first=105 second=106 amount=-4
kerning first=107 second=84 amount=-5
kerning first=107 second=86 amount=-2
kerning first=107 second=89 amount=-4
kerning first=107 second=97 amount=-2
kerning first=107 second=99 amount=-2
kerning first=107 second=100 amount=-2
kerning first=107 second=101 amount=-2
kerning first=107 second=106 amount=-3
kerning first=107 second=111 amount=-2
kerning first=107 second=113 amount=-2
kerning first=108 second=106 amount=-3
kerning first=109 second=84 amount=-5
kerning first=109 second=86 amount=-4
kerning first=109 second=87 amount=-3
kerning first=109 second=89 amount=-4
kerning first=109 second=106 amount=-4
kerning first=109 second=116 amount=-2
kerning first=109 second=121 amount=-2
kerning first=110 second=84 amount=-4
kerning first=110 second=86 amount=-5
kerning first=110 second=87 amount=-3
kerning first=110 second=89 amount=-4
kerning first=110 second=102 amount=-2
kerning first=110 second=106 amount=-3
kerning first=110 second=116 amount=-2
kerning first=110 second=118 amount=-2
kerning first=110 second=121 amount=-2
kerning first=111 second=65 amount=-2
kerning first=111 second=84 amount=-5
kerning first=111 second=86 amount=-5
kerning first=111 second=87 amount=-3
kerning first=111 second=88 amount=-3
kerning first=111 second=89 amount=-5
kerning first=111 second=90 amount=-3
kerning first=111 second=102 amount=-2
kerning first=111 second=106 amount=-4
kerning first=111 second=116 amount=-2
kerning first=111 second=118 amount=-2
kerning first=111 second=120 amount=-2
kerning first=111 second=121 amount=-2
kerning first=111 second=122 amount=-2
kerning first=112 second=65 amount=-2
kerning first=112 second=84 amount=-6
kerning first=112 second=86 amount=-5
kerning first=112 second=87 amount=-3
kerning first=112 second=88 amount=-3
kerning first=112 second=89 amount=-5
kerning first=112 second=90 amount=-3
kerning first=112 second=102 amount=-2
kerning first=112 second=106 amount=-4
kerning first=112 second=116 amount=-2
kerning first=112 second=118 amount=-2
kerning first=112 second=120 amount=-2
kerning first=112 second=121 amount=-2
kerning first=112 second=122 amount=-2
kerning first=113 second=84 amount=-5
kerning first=113 second=86 amount=-3
kerning first=113 second=87 amount=-3
kerning first=113 second=89 amount=-5
kerning first=113 second=102 amount=-2
kerning first=113 second=116 amount=-2
kerning first=113 second=118 amount=-2
kerning first=113 second=121 amount=-2
kerning first=114 second=65 amount=-4
kerning first=114 second=74 amount=-5
kerning first=114 second=84 amount=-4
kerning first=114 second=86 amount=-2
kerning first=114 second=88 amount=-4
kerning first=114 second=89 amount=-3
kerning first=114 second=90 amount=-4
kerning first=114 second=106 amount=-4
kerning first=115 second=84 amount=-5
kerning first=115 second=86 amount=-3
kerning first=115 second=87 amount=-2
kerning first=115 second=89 amount=-5
kerning first=115 second=106 amount=-4
kerning first=116 second=84 amount=-4
kerning first=116 second=86 amount=-3
kerning first=116 second=87 amount=-2
kerning first=116 second=89 amount=-4
kerning first=116 second=97 amount=-2
kerning first=116 second=99 amount=-2
kerning first=116 second=100 amount=-2
kerning first=116 second=101 amount=-2
kerning first=116 second=106 amount=-3
kerning first=116 second=111 amount=-2
kerning first=116 second=113 amount=-2
kerning first=117 second=84 amount=-5
kerning first=117 second=86 amount=-3
kerning first=117 second=87 amount=-2
kerning first=117 second=89 amount=-4
kerning first=117 second=106 amount=-3
kerning first=118 second=65 amount=-4
kerning first=118 second=74 amount=-4
kerning first=118 second=84 amount=-5
kerning first=118 second=86 amount=-3
kerning first=118 second=87 amount=-2
kerning first=118 second=88 amount=-5
kerning first=118 second=89 amount=-4
kerning first=118 second=90 amount=-5
kerning first=118 second=97 amount=-2
kerning first=118 second=99 amount=-2
kerning first=118 second=100 amount=-2
kerning first=118 second=101 amount=-2
kerning first=118 second=103 amount=-2
kerning first=118 second=106 amount=-4
kerning first=118 second=111 amount=-2
kerning first=118 second=112 amount=-2
kerning first=118 second=113 amount=-2
kerning first=119 second=65 amount=-5
kerning first=119 second=74 amount=-2
kerning first=119 second=84 amount=-6
kerning first=119 second=86 amount=-3
kerning first=119 second=88 amount=-4
kerning first=119 second=89 amount=-3
kerning first=119 second=90 amount=-4
kerning first=119 second=106 amount=-4
kerning first=120 second=84 amount=-4
kerning first=120 second=86 amount=-2
kerning first=120 second=89 amount=-4
kerning first=120 second=97 amount=-2
kerning first=120 second=99 amount=-2
kerning first=120 second=100 amount=-2
kerning first=120 second=101 amount=-2
kerning first=120 second=106 amount=-3
kerning first=120 second=111 amount=-2
kerning first=120 second=113 amount=-2
kerning first=121 second=65 amount=-3
kerning first=121 second=74 amount=-2
kerning first=121 second=84 amount=-6
kerning first=121 second=86 amount=-2
kerning first=121 second=88 amount=-2
kerning first=121 second=89 amount=-2
kerning first=121 second=90 amount=-3
kerning first=121 second=106 amount=-4
kerning first=122 second=84 amount=-6
kerning first=122 second=86 amount=-2
kerning first=122 second=89 amount=-2
kerning first=122 second=97 amount=-2
kerning first=122 second=99 amount=-2
kerning first=122 second=100 amount=-2
kerning first=122 second=101 amount=-2
kerning first=122 second=106 amount=-4
kerning first=122 second=111 amount=-2
kerning first=122 second=113 amount=-2
