info face="garamond" size=32 bold=0 italic=0 charset="" unicode=1 stretchH=100 smooth=1 aa=2 padding=0,0,0,0 spacing=0,0
common lineHeight=32 base=23 scaleW=1024 scaleH=1024 pages=8 packed=0 alphaChnl=0 redChnl=0 greenChnl=0 blueChnl=0
page id=0 file="fonts_0.png"
page id=1 file="fonts_1.png"
page id=2 file="fonts_2.png"
page id=3 file="fonts_3.png"
page id=4 file="fonts_4.png"
page id=5 file="fonts_5.png"
page id=6 file="fonts_6.png"
page id=7 file="fonts_7.png"
chars count=96
char id=10   x=54   y=170  width=11   height=19   xoffset=1    yoffset=7    xadvance=13   page=1    chnl=0
char id=32   x=0    y=0    width=0    height=0    xoffset=0    yoffset=0    xadvance=7    page=0    chnl=0
char id=33   x=33   y=600  width=4    height=19   xoffset=1    yoffset=4    xadvance=7    page=1    chnl=0
char id=34   x=23   y=709  width=8    height=8    xoffset=1    yoffset=1    xadvance=10   page=1    chnl=0
char id=35   x=550  y=59   width=22   height=21   xoffset=1    yoffset=2    xadvance=23   page=1    chnl=0
char id=36   x=536  y=38   width=12   height=27   xoffset=1    yoffset=0    xadvance=13   page=1    chnl=0
char id=37   x=550  y=38   width=23   height=19   xoffset=1    yoffset=4    xadvance=24   page=1    chnl=0
char id=38   x=550  y=82   width=23   height=21   xoffset=1    yoffset=2    xadvance=25   page=1    chnl=0
char id=39   x=32   y=70   width=4    height=8    xoffset=1    yoffset=1    xadvance=6    page=1    chnl=0
char id=40   x=57   y=273  width=9    height=32   xoffset=1    yoffset=-1   xadvance=9    page=1    chnl=0
char id=41   x=57   y=307  width=8    height=32   xoffset=0    yoffset=-1   xadvance=9    page=1    chnl=0
char id=42   x=718  y=22   width=12   height=11   xoffset=0    yoffset=3    xadvance=13   page=1    chnl=0
char id=43   x=138  y=24   width=13   height=12   xoffset=1    yoffset=10   xadvance=15   page=1    chnl=0
char id=44   x=29   y=1012 width=6    height=9    xoffset=1    yoffset=20   xadvance=8    page=1    chnl=0
char id=45   x=12   y=621  width=11   height=2    xoffset=1    yoffset=15   xadvance=12   page=1    chnl=0
char id=46   x=12   y=714  width=5    height=4    xoffset=1    yoffset=19   xadvance=7    page=1    chnl=0
char id=47   x=521  y=38   width=13   height=25   xoffset=-1   yoffset=-1   xadvance=8    page=1    chnl=0
char id=48   x=694  y=22   width=15   height=14   xoffset=1    yoffset=9    xadvance=16   page=1    chnl=0
char id=49   x=474  y=22   width=9    height=14   xoffset=0    yoffset=9    xadvance=9    page=1    chnl=0
char id=50   x=648  y=22   width=12   height=14   xoffset=1    yoffset=9    xadvance=13   page=1    chnl=0
char id=51   x=54   y=191  width=10   height=18   xoffset=0    yoffset=9    xadvance=10   page=1    chnl=0
char id=52   x=39   y=992  width=15   height=20   xoffset=1    yoffset=9    xadvance=17   page=1    chnl=0
char id=53   x=54   y=211  width=10   height=20   xoffset=0    yoffset=8    xadvance=11   page=1    chnl=0
char id=54   x=303  y=82   width=14   height=19   xoffset=1    yoffset=4    xadvance=15   page=1    chnl=0
char id=55   x=319  y=82   width=13   height=19   xoffset=1    yoffset=9    xadvance=14   page=1    chnl=0
char id=56   x=54   y=233  width=11   height=18   xoffset=1    yoffset=5    xadvance=13   page=1    chnl=0
char id=57   x=334  y=82   width=14   height=19   xoffset=1    yoffset=9    xadvance=15   page=1    chnl=0
char id=58   x=504  y=22   width=5    height=13   xoffset=1    yoffset=10   xadvance=6    page=1    chnl=0
char id=59   x=57   y=254  width=6    height=17   xoffset=1    yoffset=12   xadvance=7    page=1    chnl=0
char id=60   x=420  y=81   width=16   height=15   xoffset=1    yoffset=8    xadvance=19   page=1    chnl=0
char id=61   x=153  y=24   width=13   height=7    xoffset=1    yoffset=13   xadvance=15   page=1    chnl=0
char id=62   x=438  y=81   width=17   height=15   xoffset=1    yoffset=8    xadvance=19   page=1    chnl=0
char id=63   x=29   y=989  width=7    height=20   xoffset=1    yoffset=3    xadvance=9    page=1    chnl=0
char id=64   x=479  y=79   width=22   height=21   xoffset=1    yoffset=5    xadvance=23   page=1    chnl=0
char id=65   x=280  y=16   width=21   height=19   xoffset=0    yoffset=4    xadvance=21   page=1    chnl=0
char id=66   x=303  y=16   width=16   height=19   xoffset=0    yoffset=4    xadvance=17   page=1    chnl=0
char id=67   x=379  y=16   width=20   height=19   xoffset=1    yoffset=4    xadvance=22   page=1    chnl=0
char id=68   x=401  y=1    width=22   height=19   xoffset=0    yoffset=4    xadvance=23   page=1    chnl=0
char id=69   x=425  y=1    width=18   height=19   xoffset=0    yoffset=4    xadvance=18   page=1    chnl=0
char id=70   x=445  y=1    width=16   height=19   xoffset=0    yoffset=4    xadvance=16   page=1    chnl=0
char id=71   x=463  y=1    width=22   height=19   xoffset=1    yoffset=4    xadvance=23   page=1    chnl=0
char id=72   x=487  y=1    width=23   height=19   xoffset=0    yoffset=4    xadvance=23   page=1    chnl=0
char id=73   x=24   y=922  width=11   height=19   xoffset=0    yoffset=4    xadvance=11   page=1    chnl=0
char id=74   x=512  y=1    width=14   height=25   xoffset=-3   yoffset=4    xadvance=10   page=1    chnl=0
char id=75   x=528  y=1    width=21   height=19   xoffset=0    yoffset=4    xadvance=20   page=1    chnl=0
char id=76   x=551  y=1    width=18   height=19   xoffset=0    yoffset=4    xadvance=19   page=1    chnl=0
char id=77   x=571  y=1    width=27   height=19   xoffset=0    yoffset=4    xadvance=26   page=1    chnl=0
char id=78   x=600  y=1    width=23   height=19   xoffset=0    yoffset=4    xadvance=22   page=1    chnl=0
char id=79   x=625  y=1    width=21   height=19   xoffset=1    yoffset=4    xadvance=23   page=1    chnl=0
char id=80   x=648  y=1    width=16   height=19   xoffset=0    yoffset=4    xadvance=17   page=1    chnl=0
char id=81   x=666  y=1    width=26   height=27   xoffset=1    yoffset=4    xadvance=23   page=1    chnl=0
char id=82   x=694  y=1    width=22   height=19   xoffset=0    yoffset=4    xadvance=21   page=1    chnl=0
char id=83   x=24   y=943  width=12   height=19   xoffset=1    yoffset=4    xadvance=13   page=1    chnl=0
char id=84   x=718  y=1    width=19   height=19   xoffset=1    yoffset=4    xadvance=19   page=1    chnl=0
char id=85   x=739  y=1    width=21   height=19   xoffset=0    yoffset=4    xadvance=20   page=1    chnl=0
char id=86   x=762  y=1    width=19   height=19   xoffset=0    yoffset=4    xadvance=18   page=1    chnl=0
char id=87   x=783  y=1    width=29   height=19   xoffset=0    yoffset=4    xadvance=29   page=1    chnl=0
char id=88   x=814  y=1    width=20   height=19   xoffset=0    yoffset=4    xadvance=20   page=1    chnl=0
char id=89   x=836  y=1    width=18   height=19   xoffset=0    yoffset=4    xadvance=17   page=1    chnl=0
char id=90   x=856  y=1    width=18   height=19   xoffset=1    yoffset=4    xadvance=19   page=1    chnl=0
char id=91   x=54   y=810  width=8    height=25   xoffset=1    yoffset=4    xadvance=9    page=1    chnl=0
char id=92   x=521  y=65   width=12   height=25   xoffset=0    yoffset=-1   xadvance=11   page=1    chnl=0
char id=93   x=54   y=837  width=8    height=25   xoffset=0    yoffset=4    xadvance=9    page=1    chnl=0
char id=94   x=24   y=980  width=8    height=7    xoffset=0    yoffset=1    xadvance=9    page=1    chnl=0
char id=95   x=105  y=33   width=19   height=1    xoffset=0    yoffset=25   xadvance=19   page=1    chnl=0
char id=96   x=27   y=96   width=6    height=7    xoffset=1    yoffset=1    xadvance=7    page=1    chnl=0
char id=97   x=23   y=573  width=13   height=14   xoffset=0    yoffset=9    xadvance=13   page=1    chnl=0
char id=98   x=876  y=1    width=16   height=22   xoffset=0    yoffset=1    xadvance=16   page=1    chnl=0
char id=99   x=24   y=964  width=12   height=14   xoffset=0    yoffset=9    xadvance=13   page=1    chnl=0
char id=100  x=894  y=1    width=16   height=22   xoffset=0    yoffset=1    xadvance=16   page=1    chnl=0
char id=101  x=240  y=21   width=12   height=14   xoffset=0    yoffset=9    xadvance=13   page=1    chnl=0
char id=102  x=912  y=1    width=15   height=22   xoffset=0    yoffset=1    xadvance=10   page=1    chnl=0
char id=103  x=929  y=1    width=16   height=23   xoffset=-1   yoffset=9    xadvance=15   page=1    chnl=0
char id=104  x=947  y=1    width=17   height=22   xoffset=0    yoffset=1    xadvance=17   page=1    chnl=0
char id=105  x=197  y=10   width=9    height=21   xoffset=0    yoffset=2    xadvance=9    page=1    chnl=0
char id=106  x=966  y=1    width=8    height=30   xoffset=-1   yoffset=2    xadvance=7    page=1    chnl=0
char id=107  x=976  y=1    width=18   height=22   xoffset=0    yoffset=1    xadvance=17   page=1    chnl=0
char id=108  x=996  y=1    width=9    height=22   xoffset=0    yoffset=1    xadvance=9    page=1    chnl=0
char id=109  x=571  y=22   width=26   height=14   xoffset=0    yoffset=9    xadvance=26   page=1    chnl=0
char id=110  x=401  y=22   width=17   height=14   xoffset=0    yoffset=9    xadvance=17   page=1    chnl=0
char id=111  x=425  y=22   width=15   height=14   xoffset=0    yoffset=9    xadvance=16   page=1    chnl=0
char id=112  x=1007 y=1    width=14   height=23   xoffset=0    yoffset=9    xadvance=14   page=1    chnl=0
char id=113  x=39   y=942  width=16   height=23   xoffset=0    yoffset=9    xadvance=16   page=1    chnl=0
char id=114  x=445  y=22   width=12   height=14   xoffset=0    yoffset=9    xadvance=11   page=1    chnl=0
char id=115  x=463  y=22   width=9    height=14   xoffset=0    yoffset=9    xadvance=10   page=1    chnl=0
char id=116  x=54   y=152  width=10   height=16   xoffset=0    yoffset=7    xadvance=10   page=1    chnl=0
char id=117  x=487  y=22   width=15   height=14   xoffset=0    yoffset=9    xadvance=15   page=1    chnl=0
char id=118  x=528  y=22   width=14   height=14   xoffset=0    yoffset=9    xadvance=13   page=1    chnl=0
char id=119  x=600  y=22   width=21   height=14   xoffset=0    yoffset=9    xadvance=20   page=1    chnl=0
char id=120  x=551  y=22   width=15   height=14   xoffset=0    yoffset=9    xadvance=15   page=1    chnl=0
char id=121  x=39   y=967  width=14   height=23   xoffset=0    yoffset=9    xadvance=13   page=1    chnl=0
char id=122  x=625  y=22   width=14   height=14   xoffset=0    yoffset=9    xadvance=14   page=1    chnl=0
char id=123  x=54   y=864  width=11   height=28   xoffset=0    yoffset=0    xadvance=12   page=1    chnl=0
char id=124  x=34   y=105  width=3    height=27   xoffset=1    yoffset=4    xadvance=5    page=1    chnl=0
char id=125  x=54   y=894  width=11   height=28   xoffset=1    yoffset=0    xadvance=12   page=1    chnl=0
char id=126  x=512  y=28   width=11   height=5    xoffset=1    yoffset=13   xadvance=12   page=1    chnl=0
kernings count=0
